<mxfile host="65bd71144e">
    <diagram id="nh5f_a7Kjr0a4199ISqu" name="Page-1">
        <mxGraphModel dx="377" dy="230" grid="1" gridSize="10" guides="1" tooltips="1" connect="1" arrows="1" fold="1" page="1" pageScale="1" pageWidth="1100" pageHeight="850" math="0" shadow="0">
            <root>
                <mxCell id="0"/>
                <mxCell id="1" parent="0"/>
                <mxCell id="2" value="" style="verticalLabelPosition=bottom;verticalAlign=top;html=1;shadow=0;dashed=0;strokeWidth=1;shape=mxgraph.android.phone2;strokeColor=#c0c0c0;" parent="1" vertex="1">
                    <mxGeometry x="30" y="30" width="300" height="590" as="geometry"/>
                </mxCell>
                <mxCell id="3" value="" style="verticalLabelPosition=bottom;verticalAlign=top;html=1;shadow=0;dashed=0;strokeWidth=1;shape=mxgraph.android.phone2;strokeColor=#c0c0c0;" parent="1" vertex="1">
                    <mxGeometry x="350" y="30" width="300" height="590" as="geometry"/>
                </mxCell>
                <mxCell id="23" value="" style="rounded=0;whiteSpace=wrap;html=1;strokeColor=#f0f0f0;fillColor=#FFFFFF;gradientColor=none;" parent="1" vertex="1">
                    <mxGeometry x="40" y="240" width="280" height="330" as="geometry"/>
                </mxCell>
                <mxCell id="24" value="" style="rounded=0;whiteSpace=wrap;html=1;strokeColor=#f0f0f0;fillColor=#FFFFFF;gradientColor=none;" parent="1" vertex="1">
                    <mxGeometry x="360" y="80" width="280" height="280" as="geometry"/>
                </mxCell>
                <mxCell id="25" value="" style="rounded=0;whiteSpace=wrap;html=1;gradientColor=none;fillColor=#404040;strokeColor=none;" parent="1" vertex="1">
                    <mxGeometry x="360" y="330" width="280" height="220" as="geometry"/>
                </mxCell>
                <mxCell id="26" value="" style="rounded=0;whiteSpace=wrap;html=1;strokeColor=#f0f0f0;gradientColor=none;fillColor=#F3F3F3;" parent="1" vertex="1">
                    <mxGeometry x="40" y="80" width="280" height="210" as="geometry"/>
                </mxCell>
                <mxCell id="34" value="List" style="swimlane;fontStyle=0;childLayout=stackLayout;horizontal=1;startSize=26;horizontalStack=0;resizeParent=1;resizeParentMax=0;resizeLast=0;collapsible=1;marginBottom=0;gradientColor=none;fillColor=#404040;swimlaneLine=0;strokeColor=none;" parent="1" vertex="1">
                    <mxGeometry x="410" y="342" width="60" height="104" as="geometry"/>
                </mxCell>
                <mxCell id="35" value="Item 1" style="text;strokeColor=none;fillColor=none;align=left;verticalAlign=top;spacingLeft=4;spacingRight=4;overflow=hidden;rotatable=0;points=[[0,0.5],[1,0.5]];portConstraint=eastwest;" parent="34" vertex="1">
                    <mxGeometry y="26" width="60" height="26" as="geometry"/>
                </mxCell>
                <mxCell id="36" value="Item 2" style="text;strokeColor=none;fillColor=none;align=left;verticalAlign=top;spacingLeft=4;spacingRight=4;overflow=hidden;rotatable=0;points=[[0,0.5],[1,0.5]];portConstraint=eastwest;" parent="34" vertex="1">
                    <mxGeometry y="52" width="60" height="26" as="geometry"/>
                </mxCell>
                <mxCell id="37" value="Item 3" style="text;strokeColor=none;fillColor=none;align=left;verticalAlign=top;spacingLeft=4;spacingRight=4;overflow=hidden;rotatable=0;points=[[0,0.5],[1,0.5]];portConstraint=eastwest;" parent="34" vertex="1">
                    <mxGeometry y="78" width="60" height="26" as="geometry"/>
                </mxCell>
                <mxCell id="38" value="List" style="swimlane;fontStyle=0;childLayout=stackLayout;horizontal=1;startSize=26;horizontalStack=0;resizeParent=1;resizeParentMax=0;resizeLast=0;collapsible=1;marginBottom=0;gradientColor=none;fillColor=#404040;swimlaneLine=0;strokeColor=none;" parent="1" vertex="1">
                    <mxGeometry x="410" y="446" width="60" height="104" as="geometry"/>
                </mxCell>
                <mxCell id="39" value="Item 1" style="text;strokeColor=none;fillColor=none;align=left;verticalAlign=top;spacingLeft=4;spacingRight=4;overflow=hidden;rotatable=0;points=[[0,0.5],[1,0.5]];portConstraint=eastwest;" parent="38" vertex="1">
                    <mxGeometry y="26" width="60" height="26" as="geometry"/>
                </mxCell>
                <mxCell id="40" value="Item 2" style="text;strokeColor=none;fillColor=none;align=left;verticalAlign=top;spacingLeft=4;spacingRight=4;overflow=hidden;rotatable=0;points=[[0,0.5],[1,0.5]];portConstraint=eastwest;" parent="38" vertex="1">
                    <mxGeometry y="52" width="60" height="26" as="geometry"/>
                </mxCell>
                <mxCell id="41" value="Item 3" style="text;strokeColor=none;fillColor=none;align=left;verticalAlign=top;spacingLeft=4;spacingRight=4;overflow=hidden;rotatable=0;points=[[0,0.5],[1,0.5]];portConstraint=eastwest;" parent="38" vertex="1">
                    <mxGeometry y="78" width="60" height="26" as="geometry"/>
                </mxCell>
                <mxCell id="42" value="List" style="swimlane;fontStyle=0;childLayout=stackLayout;horizontal=1;startSize=26;horizontalStack=0;resizeParent=1;resizeParentMax=0;resizeLast=0;collapsible=1;marginBottom=0;gradientColor=none;fillColor=#404040;swimlaneLine=0;strokeColor=none;" parent="1" vertex="1">
                    <mxGeometry x="540" y="340" width="60" height="104" as="geometry"/>
                </mxCell>
                <mxCell id="43" value="Item 1" style="text;strokeColor=none;fillColor=none;align=left;verticalAlign=top;spacingLeft=4;spacingRight=4;overflow=hidden;rotatable=0;points=[[0,0.5],[1,0.5]];portConstraint=eastwest;" parent="42" vertex="1">
                    <mxGeometry y="26" width="60" height="26" as="geometry"/>
                </mxCell>
                <mxCell id="44" value="Item 2" style="text;strokeColor=none;fillColor=none;align=left;verticalAlign=top;spacingLeft=4;spacingRight=4;overflow=hidden;rotatable=0;points=[[0,0.5],[1,0.5]];portConstraint=eastwest;" parent="42" vertex="1">
                    <mxGeometry y="52" width="60" height="26" as="geometry"/>
                </mxCell>
                <mxCell id="45" value="Item 3" style="text;strokeColor=none;fillColor=none;align=left;verticalAlign=top;spacingLeft=4;spacingRight=4;overflow=hidden;rotatable=0;points=[[0,0.5],[1,0.5]];portConstraint=eastwest;" parent="42" vertex="1">
                    <mxGeometry y="78" width="60" height="26" as="geometry"/>
                </mxCell>
                <mxCell id="59" value="Button" style="html=1;shadow=0;dashed=0;shape=mxgraph.bootstrap.rrect;rSize=5;strokeWidth=1;fontColor=#0085FC;whiteSpace=wrap;align=center;verticalAlign=middle;spacingLeft=0;fontStyle=0;fontSize=16;spacing=5;strokeColor=none;" parent="1" vertex="1">
                    <mxGeometry x="540" y="530" width="50" height="20" as="geometry"/>
                </mxCell>
                <mxCell id="61" value="" style="rounded=0;whiteSpace=wrap;html=1;strokeWidth=1;fillColor=#2a2a2a;gradientColor=none;strokeColor=#FEFFF7;" parent="1" vertex="1">
                    <mxGeometry x="360" y="550" width="280" height="20" as="geometry"/>
                </mxCell>
                <mxCell id="63" value="Footer - All rights reserved 2021" style="text;html=1;strokeColor=none;fillColor=none;align=center;verticalAlign=middle;whiteSpace=wrap;rounded=0;" parent="1" vertex="1">
                    <mxGeometry x="390" y="550" width="220" height="20" as="geometry"/>
                </mxCell>
                <mxCell id="64" value="" style="rounded=0;whiteSpace=wrap;html=1;strokeWidth=1;fillColor=#2a2a2a;gradientColor=none;strokeColor=#FEFFF7;" parent="1" vertex="1">
                    <mxGeometry x="40" y="550" width="280" as="geometry"/>
                </mxCell>
                <mxCell id="71" value="&lt;font style=&quot;font-size: 10px&quot; color=&quot;#000000&quot;&gt;Log in&lt;/font&gt;" style="html=1;shadow=0;dashed=0;shape=mxgraph.bootstrap.rrect;rSize=5;strokeWidth=1;fillColor=none;fontColor=#F8F9FA;whiteSpace=wrap;align=center;verticalAlign=middle;spacingLeft=0;fontStyle=0;fontSize=16;spacing=5;strokeColor=#000000;" parent="1" vertex="1">
                    <mxGeometry x="190" y="207.5" width="60" height="20" as="geometry"/>
                </mxCell>
                <mxCell id="72" value="&lt;font style=&quot;font-size: 10px&quot;&gt;14 Days free trial&lt;/font&gt;" style="html=1;shadow=0;dashed=0;shape=mxgraph.bootstrap.rrect;rSize=5;strokeColor=#F8F9FA;strokeWidth=1;fontColor=#F8F9FA;whiteSpace=wrap;align=center;verticalAlign=middle;spacingLeft=0;fontStyle=0;fontSize=16;spacing=5;fillColor=#2A2A2A;" parent="1" vertex="1">
                    <mxGeometry x="95" y="207.5" width="90" height="20" as="geometry"/>
                </mxCell>
                <mxCell id="73" value="&lt;font style=&quot;font-size: 10px&quot; color=&quot;#000000&quot;&gt;Logo&lt;/font&gt;" style="html=1;shadow=0;dashed=0;shape=mxgraph.bootstrap.rrect;rSize=5;strokeWidth=1;fillColor=none;fontColor=#F8F9FA;whiteSpace=wrap;align=center;verticalAlign=middle;spacingLeft=0;fontStyle=0;fontSize=16;spacing=5;strokeColor=#000000;" parent="1" vertex="1">
                    <mxGeometry x="115" y="90" width="120" height="20" as="geometry"/>
                </mxCell>
                <mxCell id="76" value="&lt;font style=&quot;font-size: 20px&quot; color=&quot;#000000&quot;&gt;Contact Us&lt;/font&gt;" style="text;strokeColor=none;fillColor=none;html=1;fontSize=24;fontStyle=1;verticalAlign=middle;align=center;" parent="1" vertex="1">
                    <mxGeometry x="122.5" y="227.5" width="105" height="25.5" as="geometry"/>
                </mxCell>
                <mxCell id="78" value="&lt;font color=&quot;#1f1f1f&quot;&gt;Our dream team of conversion specialists are looking forward to hearing from you&lt;/font&gt;" style="text;html=1;strokeColor=none;fillColor=none;align=center;verticalAlign=middle;whiteSpace=wrap;rounded=0;" parent="1" vertex="1">
                    <mxGeometry x="60" y="260" width="240" height="20" as="geometry"/>
                </mxCell>
                <mxCell id="80" value="&lt;font&gt;&lt;font style=&quot;font-size: 10px&quot;&gt;-Products&lt;br&gt;&lt;/font&gt;&lt;span style=&quot;font-size: 10px&quot;&gt;-Templates&lt;/span&gt;&lt;br style=&quot;font-size: 10px&quot;&gt;&lt;span style=&quot;font-size: 10px&quot;&gt;-Pricing&lt;br&gt;&lt;/span&gt;&lt;span style=&quot;font-size: 10px&quot;&gt;-Resources&lt;/span&gt;&lt;br style=&quot;font-size: 10px&quot;&gt;&lt;span style=&quot;font-size: 10px&quot;&gt;-Blog&lt;/span&gt;&lt;br&gt;&lt;/font&gt;" style="strokeWidth=1;shadow=0;dashed=0;align=center;html=1;shape=mxgraph.mockup.text.bulletedList;textColor=#666666;mainText=,,,,;textSize=17;bulletStyle=none;strokeColor=none;fillColor=none;align=left;verticalAlign=top;fontSize=17;fontColor=#666666;" parent="1" vertex="1">
                    <mxGeometry x="145" y="100" width="70" height="60" as="geometry"/>
                </mxCell>
                <mxCell id="97" value="Reach out to us" style="fillColor=none;strokeColor=none;align=left;fontSize=16;fontColor=#1F1F1F;" parent="1" vertex="1">
                    <mxGeometry x="40" y="285" width="200" height="20" as="geometry"/>
                </mxCell>
                <mxCell id="98" value="&lt;font style=&quot;font-size: 12px&quot;&gt;First Name&lt;/font&gt;" style="html=1;shadow=0;dashed=0;shape=mxgraph.bootstrap.rrect;rSize=5;fillColor=none;strokeColor=#999999;align=left;spacing=15;fontSize=14;fontColor=#6C767D;" parent="1" vertex="1">
                    <mxGeometry width="280" height="30" relative="1" as="geometry">
                        <mxPoint x="40" y="340" as="offset"/>
                    </mxGeometry>
                </mxCell>
                <mxCell id="112" value="&lt;font style=&quot;font-size: 12px&quot;&gt;Message&lt;/font&gt;" style="html=1;shadow=0;dashed=0;shape=mxgraph.bootstrap.rrect;rSize=5;fillColor=none;strokeColor=#999999;align=left;spacing=15;fontSize=14;fontColor=#6C767D;" parent="1" vertex="1">
                    <mxGeometry width="280" height="60" relative="1" as="geometry">
                        <mxPoint x="40" y="460" as="offset"/>
                    </mxGeometry>
                </mxCell>
                <mxCell id="113" value="&lt;font style=&quot;font-size: 12px&quot;&gt;Last Name&lt;/font&gt;" style="html=1;shadow=0;dashed=0;shape=mxgraph.bootstrap.rrect;rSize=5;fillColor=none;strokeColor=#999999;align=left;spacing=15;fontSize=14;fontColor=#6C767D;" parent="1" vertex="1">
                    <mxGeometry width="280" height="30" relative="1" as="geometry">
                        <mxPoint x="40" y="370" as="offset"/>
                    </mxGeometry>
                </mxCell>
                <mxCell id="114" value="&lt;font style=&quot;font-size: 12px&quot;&gt;Email Adress&lt;/font&gt;" style="html=1;shadow=0;dashed=0;shape=mxgraph.bootstrap.rrect;rSize=5;fillColor=none;strokeColor=#999999;align=left;spacing=15;fontSize=14;fontColor=#6C767D;" parent="1" vertex="1">
                    <mxGeometry width="280" height="30" relative="1" as="geometry">
                        <mxPoint x="40" y="395" as="offset"/>
                    </mxGeometry>
                </mxCell>
                <mxCell id="115" value="&lt;font style=&quot;font-size: 12px&quot;&gt;Phone Number&lt;/font&gt;" style="html=1;shadow=0;dashed=0;shape=mxgraph.bootstrap.rrect;rSize=5;fillColor=none;strokeColor=#999999;align=left;spacing=15;fontSize=14;fontColor=#6C767D;" parent="1" vertex="1">
                    <mxGeometry width="280" height="30" relative="1" as="geometry">
                        <mxPoint x="40" y="429" as="offset"/>
                    </mxGeometry>
                </mxCell>
                <mxCell id="116" value="Got a question about Lander?.........&#10;........................................................." style="fillColor=none;strokeColor=none;align=left;fontSize=13;fontColor=#1F1F1F;" parent="1" vertex="1">
                    <mxGeometry x="40" y="305" width="270" height="40" as="geometry"/>
                </mxCell>
                <mxCell id="117" value="&lt;h1 style=&quot;font-size: 20px&quot;&gt;&lt;font style=&quot;font-size: 20px&quot;&gt;Lander Team&lt;/font&gt;&lt;/h1&gt;&lt;p&gt;&lt;font style=&quot;font-size: 12px&quot;&gt;Lorem ipsum dolor sit amet, consectetur adipisicing elit,&amp;nbsp;&lt;/font&gt;&lt;/p&gt;&lt;p&gt;&lt;span style=&quot;font-size: 14px&quot;&gt;Other Ways to connect&lt;/span&gt;&lt;/p&gt;&lt;blockquote style=&quot;margin: 0px 0px 0px 40px ; border: none ; padding: 0px ; font-size: 12px&quot;&gt;&lt;p&gt;&lt;span&gt;Be the first ................................&lt;/span&gt;&lt;/p&gt;&lt;p&gt;&lt;span&gt;Want the best tips...........................&lt;/span&gt;&lt;/p&gt;&lt;p&gt;&lt;span&gt;Folow us .............................&lt;/span&gt;&lt;/p&gt;&lt;/blockquote&gt;" style="text;html=1;strokeColor=none;fillColor=none;spacing=5;spacingTop=-20;whiteSpace=wrap;overflow=hidden;rounded=0;fontSize=13;fontColor=#1F1F1F;" parent="1" vertex="1">
                    <mxGeometry x="380" y="90" width="220" height="230" as="geometry"/>
                </mxCell>
                <mxCell id="118" value="Submit" style="html=1;shadow=0;dashed=0;shape=mxgraph.bootstrap.rrect;rSize=5;strokeColor=none;strokeWidth=1;fillColor=#343A40;fontColor=#FFFFFF;whiteSpace=wrap;align=left;verticalAlign=middle;spacingLeft=0;fontStyle=1;fontSize=14;spacing=5;" parent="1" vertex="1">
                    <mxGeometry x="240" y="528" width="60" height="20" as="geometry"/>
                </mxCell>
                <mxCell id="119" value="" style="verticalLabelPosition=bottom;shadow=0;dashed=0;align=center;html=1;verticalAlign=top;strokeWidth=1;shape=mxgraph.mockup.graphics.simpleIcon;strokeColor=#999999;fontSize=13;fontColor=#1F1F1F;fillColor=#F3F3F3;gradientColor=none;" parent="1" vertex="1">
                    <mxGeometry x="380" y="267.5" width="30" height="25" as="geometry"/>
                </mxCell>
                <mxCell id="120" value="" style="verticalLabelPosition=bottom;shadow=0;dashed=0;align=center;html=1;verticalAlign=top;strokeWidth=1;shape=mxgraph.mockup.graphics.simpleIcon;strokeColor=#999999;fontSize=13;fontColor=#1F1F1F;fillColor=#F3F3F3;gradientColor=none;" parent="1" vertex="1">
                    <mxGeometry x="380" y="235" width="30" height="25" as="geometry"/>
                </mxCell>
                <mxCell id="121" value="" style="verticalLabelPosition=bottom;shadow=0;dashed=0;align=center;html=1;verticalAlign=top;strokeWidth=1;shape=mxgraph.mockup.graphics.simpleIcon;strokeColor=#999999;fontSize=13;fontColor=#1F1F1F;fillColor=#F3F3F3;gradientColor=none;" parent="1" vertex="1">
                    <mxGeometry x="380" y="202.5" width="30" height="25" as="geometry"/>
                </mxCell>
                <mxCell id="122" value="Window Title" style="strokeWidth=1;shadow=0;dashed=0;align=center;html=1;shape=mxgraph.mockup.containers.window;align=left;verticalAlign=top;spacingLeft=8;strokeColor2=#008cff;strokeColor3=#c4c4c4;fontColor=#666666;mainText=;fontSize=17;labelBackgroundColor=none;fillColor=#F3F3F3;gradientColor=none;" parent="1" vertex="1">
                    <mxGeometry x="30" y="660" width="1250" height="900" as="geometry"/>
                </mxCell>
                <mxCell id="123" value="" style="rounded=0;whiteSpace=wrap;html=1;fontSize=13;fontColor=#1F1F1F;strokeColor=#000000;strokeWidth=1;fillColor=#F3F3F3;gradientColor=none;" parent="1" vertex="1">
                    <mxGeometry x="30" y="690" width="1250" height="240" as="geometry"/>
                </mxCell>
                <mxCell id="124" value="" style="rounded=0;whiteSpace=wrap;html=1;fontSize=13;fontColor=#1F1F1F;strokeColor=#000000;strokeWidth=1;fillColor=#F3F3F3;gradientColor=none;" parent="1" vertex="1">
                    <mxGeometry x="30" y="930" width="1250" height="450" as="geometry"/>
                </mxCell>
                <mxCell id="125" value="" style="rounded=0;whiteSpace=wrap;html=1;fontSize=13;fontColor=#1F1F1F;strokeColor=#000000;strokeWidth=1;fillColor=#F3F3F3;gradientColor=none;" parent="1" vertex="1">
                    <mxGeometry x="30" y="1530" width="1250" height="30" as="geometry"/>
                </mxCell>
                <mxCell id="126" value="&lt;font style=&quot;font-size: 10px&quot; color=&quot;#000000&quot;&gt;Logo&lt;/font&gt;" style="html=1;shadow=0;dashed=0;shape=mxgraph.bootstrap.rrect;rSize=5;strokeWidth=1;fillColor=none;fontColor=#F8F9FA;whiteSpace=wrap;align=center;verticalAlign=middle;spacingLeft=0;fontStyle=0;fontSize=16;spacing=5;strokeColor=#000000;" parent="1" vertex="1">
                    <mxGeometry x="140" y="710" width="100" height="30" as="geometry"/>
                </mxCell>
                <mxCell id="141" value="Link" style="fillColor=none;strokeColor=none;fontSize=14;fontColor=#0085FC;" parent="1" vertex="1">
                    <mxGeometry x="280" y="710" width="180" height="30" as="geometry"/>
                </mxCell>
                <mxCell id="142" value="Link" style="fillColor=none;strokeColor=none;fontSize=14;fontColor=#0085FC;" parent="1" vertex="1">
                    <mxGeometry x="470" y="710" width="60" height="30" as="geometry"/>
                </mxCell>
                <mxCell id="143" value="Link" style="fillColor=none;strokeColor=none;fontSize=14;fontColor=#0085FC;" parent="1" vertex="1">
                    <mxGeometry x="570" y="710" width="60" height="30" as="geometry"/>
                </mxCell>
                <mxCell id="145" value="Link" style="fillColor=none;strokeColor=none;fontSize=14;fontColor=#0085FC;" parent="1" vertex="1">
                    <mxGeometry x="690" y="710" width="60" height="30" as="geometry"/>
                </mxCell>
                <mxCell id="146" value="Link" style="fillColor=none;strokeColor=none;fontSize=14;fontColor=#0085FC;" parent="1" vertex="1">
                    <mxGeometry x="810" y="710" width="60" height="30" as="geometry"/>
                </mxCell>
                <mxCell id="147" style="edgeStyle=none;html=1;exitX=0.5;exitY=1;exitDx=0;exitDy=0;entryX=0.25;entryY=1;entryDx=0;entryDy=0;fontSize=13;fontColor=#1F1F1F;" parent="1" source="146" target="146" edge="1">
                    <mxGeometry relative="1" as="geometry"/>
                </mxCell>
                <mxCell id="149" value="&lt;font style=&quot;font-size: 14px&quot;&gt;14 Days free trial&lt;/font&gt;" style="html=1;shadow=0;dashed=0;shape=mxgraph.bootstrap.rrect;rSize=5;strokeColor=#F8F9FA;strokeWidth=1;fontColor=#F8F9FA;whiteSpace=wrap;align=center;verticalAlign=middle;spacingLeft=0;fontStyle=0;fontSize=16;spacing=5;fillColor=#2A2A2A;" parent="1" vertex="1">
                    <mxGeometry x="940" y="705" width="160" height="35" as="geometry"/>
                </mxCell>
                <mxCell id="150" value="&lt;font style=&quot;font-size: 14px&quot; color=&quot;#000000&quot;&gt;Log in&lt;/font&gt;" style="html=1;shadow=0;dashed=0;shape=mxgraph.bootstrap.rrect;rSize=5;strokeWidth=1;fillColor=none;fontColor=#F8F9FA;whiteSpace=wrap;align=center;verticalAlign=middle;spacingLeft=0;fontStyle=0;fontSize=16;spacing=5;strokeColor=#000000;" parent="1" vertex="1">
                    <mxGeometry x="1120" y="705" width="120" height="35" as="geometry"/>
                </mxCell>
                <mxCell id="151" value="&lt;font style=&quot;font-size: 28px&quot;&gt;Contact us&lt;/font&gt;&lt;br style=&quot;font-size: 16px&quot;&gt;&lt;font size=&quot;1&quot;&gt;Text TEXT texr&amp;nbsp;&lt;/font&gt;&lt;span style=&quot;font-size: x-small&quot;&gt;Text TEXT texr&lt;/span&gt;&lt;span style=&quot;font-size: x-small&quot;&gt;Text TEXT texr&lt;/span&gt;&lt;span style=&quot;font-size: x-small&quot;&gt;Text TEXT texr&lt;/span&gt;&lt;span style=&quot;font-size: x-small&quot;&gt;Text TEXT texr&lt;/span&gt;&lt;span style=&quot;font-size: x-small&quot;&gt;Text TEXT texr&lt;/span&gt;&lt;span style=&quot;font-size: x-small&quot;&gt;Text TEXT texr&lt;/span&gt;" style="text;strokeColor=none;fillColor=none;html=1;fontSize=24;fontStyle=1;verticalAlign=middle;align=center;fontColor=#1F1F1F;" parent="1" vertex="1">
                    <mxGeometry x="390" y="780" width="515" height="110" as="geometry"/>
                </mxCell>
                <mxCell id="152" value="Reach out to us" style="fillColor=none;strokeColor=none;align=left;fontSize=18;fontColor=#1F1F1F;fontStyle=1" parent="1" vertex="1">
                    <mxGeometry x="135" y="950" width="220" height="50" as="geometry"/>
                </mxCell>
                <mxCell id="153" value="&lt;font style=&quot;font-size: 12px&quot;&gt;First Name&lt;/font&gt;" style="html=1;shadow=0;dashed=0;shape=mxgraph.bootstrap.rrect;rSize=5;fillColor=none;strokeColor=#999999;align=left;spacing=15;fontSize=14;fontColor=#6C767D;" parent="1" vertex="1">
                    <mxGeometry width="410" height="30" relative="1" as="geometry">
                        <mxPoint x="135" y="1040" as="offset"/>
                    </mxGeometry>
                </mxCell>
                <mxCell id="154" value="Got a question about Lander?.........&#10;........................................................." style="fillColor=none;strokeColor=none;align=left;fontSize=13;fontColor=#1F1F1F;" parent="1" vertex="1">
                    <mxGeometry x="135" y="1000" width="270" height="40" as="geometry"/>
                </mxCell>
                <mxCell id="156" value="&lt;font style=&quot;font-size: 12px&quot;&gt;Last Name&lt;/font&gt;" style="html=1;shadow=0;dashed=0;shape=mxgraph.bootstrap.rrect;rSize=5;fillColor=none;strokeColor=#999999;align=left;spacing=15;fontSize=14;fontColor=#6C767D;" parent="1" vertex="1">
                    <mxGeometry width="410" height="30" relative="1" as="geometry">
                        <mxPoint x="135" y="1080" as="offset"/>
                    </mxGeometry>
                </mxCell>
                <mxCell id="157" value="&lt;font style=&quot;font-size: 12px&quot;&gt;Email Adress&lt;/font&gt;" style="html=1;shadow=0;dashed=0;shape=mxgraph.bootstrap.rrect;rSize=5;fillColor=none;strokeColor=#999999;align=left;spacing=15;fontSize=14;fontColor=#6C767D;" parent="1" vertex="1">
                    <mxGeometry width="410" height="30" relative="1" as="geometry">
                        <mxPoint x="135" y="1120" as="offset"/>
                    </mxGeometry>
                </mxCell>
                <mxCell id="158" value="&lt;font style=&quot;font-size: 12px&quot;&gt;Phone Number&lt;/font&gt;" style="html=1;shadow=0;dashed=0;shape=mxgraph.bootstrap.rrect;rSize=5;fillColor=none;strokeColor=#999999;align=left;spacing=15;fontSize=14;fontColor=#6C767D;" parent="1" vertex="1">
                    <mxGeometry width="410" height="30" relative="1" as="geometry">
                        <mxPoint x="135" y="1160" as="offset"/>
                    </mxGeometry>
                </mxCell>
                <mxCell id="159" value="&lt;font style=&quot;font-size: 12px&quot;&gt;Message&lt;/font&gt;" style="html=1;shadow=0;dashed=0;shape=mxgraph.bootstrap.rrect;rSize=5;fillColor=none;strokeColor=#999999;align=left;spacing=15;fontSize=14;fontColor=#6C767D;" parent="1" vertex="1">
                    <mxGeometry width="410" height="80" relative="1" as="geometry">
                        <mxPoint x="135" y="1210" as="offset"/>
                    </mxGeometry>
                </mxCell>
                <mxCell id="160" value="Submit" style="html=1;shadow=0;dashed=0;shape=mxgraph.bootstrap.rrect;rSize=5;strokeColor=none;strokeWidth=1;fillColor=#343A40;fontColor=#FFFFFF;whiteSpace=wrap;align=left;verticalAlign=middle;spacingLeft=0;fontStyle=1;fontSize=14;spacing=5;" parent="1" vertex="1">
                    <mxGeometry x="460" y="1330" width="80" height="20" as="geometry"/>
                </mxCell>
                <mxCell id="163" value="&lt;h1 style=&quot;font-size: 18px&quot;&gt;&lt;font style=&quot;font-size: 18px&quot;&gt;Lander Team&lt;/font&gt;&lt;/h1&gt;&lt;p style=&quot;font-size: 18px&quot;&gt;&lt;font style=&quot;font-size: 18px&quot;&gt;Lorem ipsum dolor sit amet, consectetur adipisicing elit,&amp;nbsp;&lt;/font&gt;&lt;/p&gt;&lt;p&gt;&lt;span style=&quot;font-size: 14px&quot;&gt;Other Ways to connect&lt;/span&gt;&lt;/p&gt;&lt;blockquote style=&quot;margin: 0px 0px 0px 40px ; border: none ; padding: 0px ; font-size: 12px&quot;&gt;&lt;p&gt;&lt;span&gt;Be the first ................................&lt;/span&gt;&lt;/p&gt;&lt;p&gt;&lt;br&gt;&lt;/p&gt;&lt;p&gt;Want the best tips...........................&lt;/p&gt;&lt;p&gt;&lt;br&gt;&lt;/p&gt;&lt;p&gt;&lt;span&gt;Folow us .............................&lt;/span&gt;&lt;/p&gt;&lt;/blockquote&gt;" style="text;html=1;strokeColor=none;fillColor=none;spacing=5;spacingTop=-20;whiteSpace=wrap;overflow=hidden;rounded=0;fontSize=13;fontColor=#1F1F1F;" parent="1" vertex="1">
                    <mxGeometry x="730" y="960" width="440" height="320" as="geometry"/>
                </mxCell>
                <mxCell id="164" value="" style="verticalLabelPosition=bottom;shadow=0;dashed=0;align=center;html=1;verticalAlign=top;strokeWidth=1;shape=mxgraph.mockup.graphics.simpleIcon;strokeColor=#999999;fontSize=13;fontColor=#1F1F1F;fillColor=#F3F3F3;gradientColor=none;" parent="1" vertex="1">
                    <mxGeometry x="730" y="1090" width="30" height="25" as="geometry"/>
                </mxCell>
                <mxCell id="165" value="" style="verticalLabelPosition=bottom;shadow=0;dashed=0;align=center;html=1;verticalAlign=top;strokeWidth=1;shape=mxgraph.mockup.graphics.simpleIcon;strokeColor=#999999;fontSize=13;fontColor=#1F1F1F;fillColor=#F3F3F3;gradientColor=none;" parent="1" vertex="1">
                    <mxGeometry x="730" y="1142.5" width="30" height="25" as="geometry"/>
                </mxCell>
                <mxCell id="172" value="List" style="swimlane;fontStyle=0;childLayout=stackLayout;horizontal=1;startSize=30;horizontalStack=0;resizeParent=1;resizeParentMax=0;resizeLast=0;collapsible=1;marginBottom=0;gradientColor=none;fillColor=#404040;swimlaneLine=0;strokeColor=none;swimlaneFillColor=none;fontColor=#FEFFF7;" parent="1" vertex="1">
                    <mxGeometry x="127.5" y="1380" width="122.5" height="130" as="geometry">
                        <mxRectangle x="127.5" y="1380" width="50" height="26" as="alternateBounds"/>
                    </mxGeometry>
                </mxCell>
                <mxCell id="173" value="Item 1" style="text;strokeColor=none;fillColor=none;align=left;verticalAlign=top;spacingLeft=4;spacingRight=4;overflow=hidden;rotatable=0;points=[[0,0.5],[1,0.5]];portConstraint=eastwest;fontColor=#030303;" parent="172" vertex="1">
                    <mxGeometry y="30" width="122.5" height="34" as="geometry"/>
                </mxCell>
                <mxCell id="174" value="Item 2" style="text;strokeColor=none;fillColor=none;align=left;verticalAlign=top;spacingLeft=4;spacingRight=4;overflow=hidden;rotatable=0;points=[[0,0.5],[1,0.5]];portConstraint=eastwest;fontColor=#000000;" parent="172" vertex="1">
                    <mxGeometry y="64" width="122.5" height="30" as="geometry"/>
                </mxCell>
                <mxCell id="175" value="Item 3&#10;item 4" style="text;strokeColor=none;fillColor=none;align=left;verticalAlign=top;spacingLeft=4;spacingRight=4;overflow=hidden;rotatable=0;points=[[0,0.5],[1,0.5]];portConstraint=eastwest;fontColor=#2A2A2A;" parent="172" vertex="1">
                    <mxGeometry y="94" width="122.5" height="36" as="geometry"/>
                </mxCell>
                <mxCell id="176" value="List" style="swimlane;fontStyle=0;childLayout=stackLayout;horizontal=1;startSize=30;horizontalStack=0;resizeParent=1;resizeParentMax=0;resizeLast=0;collapsible=1;marginBottom=0;gradientColor=none;fillColor=#404040;swimlaneLine=0;strokeColor=none;swimlaneFillColor=none;fontColor=#FEFFF7;" parent="1" vertex="1">
                    <mxGeometry x="330" y="1380" width="122.5" height="130" as="geometry">
                        <mxRectangle x="127.5" y="1380" width="50" height="26" as="alternateBounds"/>
                    </mxGeometry>
                </mxCell>
                <mxCell id="177" value="Item 1" style="text;strokeColor=none;fillColor=none;align=left;verticalAlign=top;spacingLeft=4;spacingRight=4;overflow=hidden;rotatable=0;points=[[0,0.5],[1,0.5]];portConstraint=eastwest;fontColor=#030303;" parent="176" vertex="1">
                    <mxGeometry y="30" width="122.5" height="34" as="geometry"/>
                </mxCell>
                <mxCell id="178" value="Item 2" style="text;strokeColor=none;fillColor=none;align=left;verticalAlign=top;spacingLeft=4;spacingRight=4;overflow=hidden;rotatable=0;points=[[0,0.5],[1,0.5]];portConstraint=eastwest;fontColor=#000000;" parent="176" vertex="1">
                    <mxGeometry y="64" width="122.5" height="30" as="geometry"/>
                </mxCell>
                <mxCell id="179" value="Item 3&#10;item 4" style="text;strokeColor=none;fillColor=none;align=left;verticalAlign=top;spacingLeft=4;spacingRight=4;overflow=hidden;rotatable=0;points=[[0,0.5],[1,0.5]];portConstraint=eastwest;fontColor=#2A2A2A;" parent="176" vertex="1">
                    <mxGeometry y="94" width="122.5" height="36" as="geometry"/>
                </mxCell>
                <mxCell id="180" value="List" style="swimlane;fontStyle=0;childLayout=stackLayout;horizontal=1;startSize=30;horizontalStack=0;resizeParent=1;resizeParentMax=0;resizeLast=0;collapsible=1;marginBottom=0;gradientColor=none;fillColor=#404040;swimlaneLine=0;strokeColor=none;swimlaneFillColor=none;fontColor=#FEFFF7;" parent="1" vertex="1">
                    <mxGeometry x="540" y="1380" width="122.5" height="130" as="geometry">
                        <mxRectangle x="127.5" y="1380" width="50" height="26" as="alternateBounds"/>
                    </mxGeometry>
                </mxCell>
                <mxCell id="181" value="Item 1" style="text;strokeColor=none;fillColor=none;align=left;verticalAlign=top;spacingLeft=4;spacingRight=4;overflow=hidden;rotatable=0;points=[[0,0.5],[1,0.5]];portConstraint=eastwest;fontColor=#030303;" parent="180" vertex="1">
                    <mxGeometry y="30" width="122.5" height="34" as="geometry"/>
                </mxCell>
                <mxCell id="182" value="Item 2" style="text;strokeColor=none;fillColor=none;align=left;verticalAlign=top;spacingLeft=4;spacingRight=4;overflow=hidden;rotatable=0;points=[[0,0.5],[1,0.5]];portConstraint=eastwest;fontColor=#000000;" parent="180" vertex="1">
                    <mxGeometry y="64" width="122.5" height="30" as="geometry"/>
                </mxCell>
                <mxCell id="183" value="Item 3&#10;item 4" style="text;strokeColor=none;fillColor=none;align=left;verticalAlign=top;spacingLeft=4;spacingRight=4;overflow=hidden;rotatable=0;points=[[0,0.5],[1,0.5]];portConstraint=eastwest;fontColor=#2A2A2A;" parent="180" vertex="1">
                    <mxGeometry y="94" width="122.5" height="36" as="geometry"/>
                </mxCell>
                <mxCell id="188" value="List" style="swimlane;fontStyle=0;childLayout=stackLayout;horizontal=1;startSize=30;horizontalStack=0;resizeParent=1;resizeParentMax=0;resizeLast=0;collapsible=1;marginBottom=0;gradientColor=none;fillColor=#404040;swimlaneLine=0;strokeColor=none;swimlaneFillColor=none;fontColor=#FEFFF7;" parent="1" vertex="1">
                    <mxGeometry x="730" y="1380" width="122.5" height="130" as="geometry">
                        <mxRectangle x="127.5" y="1380" width="50" height="26" as="alternateBounds"/>
                    </mxGeometry>
                </mxCell>
                <mxCell id="189" value="Item 1" style="text;strokeColor=none;fillColor=none;align=left;verticalAlign=top;spacingLeft=4;spacingRight=4;overflow=hidden;rotatable=0;points=[[0,0.5],[1,0.5]];portConstraint=eastwest;fontColor=#030303;" parent="188" vertex="1">
                    <mxGeometry y="30" width="122.5" height="34" as="geometry"/>
                </mxCell>
                <mxCell id="190" value="Item 2" style="text;strokeColor=none;fillColor=none;align=left;verticalAlign=top;spacingLeft=4;spacingRight=4;overflow=hidden;rotatable=0;points=[[0,0.5],[1,0.5]];portConstraint=eastwest;fontColor=#000000;" parent="188" vertex="1">
                    <mxGeometry y="64" width="122.5" height="30" as="geometry"/>
                </mxCell>
                <mxCell id="191" value="Item 3&#10;item 4" style="text;strokeColor=none;fillColor=none;align=left;verticalAlign=top;spacingLeft=4;spacingRight=4;overflow=hidden;rotatable=0;points=[[0,0.5],[1,0.5]];portConstraint=eastwest;fontColor=#2A2A2A;" parent="188" vertex="1">
                    <mxGeometry y="94" width="122.5" height="36" as="geometry"/>
                </mxCell>
                <mxCell id="196" value="List" style="swimlane;fontStyle=0;childLayout=stackLayout;horizontal=1;startSize=30;horizontalStack=0;resizeParent=1;resizeParentMax=0;resizeLast=0;collapsible=1;marginBottom=0;gradientColor=none;fillColor=#404040;swimlaneLine=0;strokeColor=none;swimlaneFillColor=none;fontColor=#FEFFF7;" parent="1" vertex="1">
                    <mxGeometry x="920" y="1380" width="122.5" height="130" as="geometry">
                        <mxRectangle x="127.5" y="1380" width="50" height="26" as="alternateBounds"/>
                    </mxGeometry>
                </mxCell>
                <mxCell id="197" value="Item 1" style="text;strokeColor=none;fillColor=none;align=left;verticalAlign=top;spacingLeft=4;spacingRight=4;overflow=hidden;rotatable=0;points=[[0,0.5],[1,0.5]];portConstraint=eastwest;fontColor=#030303;" parent="196" vertex="1">
                    <mxGeometry y="30" width="122.5" height="34" as="geometry"/>
                </mxCell>
                <mxCell id="198" value="Item 2" style="text;strokeColor=none;fillColor=none;align=left;verticalAlign=top;spacingLeft=4;spacingRight=4;overflow=hidden;rotatable=0;points=[[0,0.5],[1,0.5]];portConstraint=eastwest;fontColor=#000000;" parent="196" vertex="1">
                    <mxGeometry y="64" width="122.5" height="30" as="geometry"/>
                </mxCell>
                <mxCell id="199" value="Item 3&#10;item 4" style="text;strokeColor=none;fillColor=none;align=left;verticalAlign=top;spacingLeft=4;spacingRight=4;overflow=hidden;rotatable=0;points=[[0,0.5],[1,0.5]];portConstraint=eastwest;fontColor=#2A2A2A;" parent="196" vertex="1">
                    <mxGeometry y="94" width="122.5" height="36" as="geometry"/>
                </mxCell>
                <mxCell id="200" value="List" style="swimlane;fontStyle=0;childLayout=stackLayout;horizontal=1;startSize=30;horizontalStack=0;resizeParent=1;resizeParentMax=0;resizeLast=0;collapsible=1;marginBottom=0;gradientColor=none;fillColor=#404040;swimlaneLine=0;strokeColor=none;swimlaneFillColor=none;fontColor=#FEFFF7;" parent="1" vertex="1">
                    <mxGeometry x="1110" y="1380" width="122.5" height="130" as="geometry">
                        <mxRectangle x="127.5" y="1380" width="50" height="26" as="alternateBounds"/>
                    </mxGeometry>
                </mxCell>
                <mxCell id="201" value="Item 1" style="text;strokeColor=none;fillColor=none;align=left;verticalAlign=top;spacingLeft=4;spacingRight=4;overflow=hidden;rotatable=0;points=[[0,0.5],[1,0.5]];portConstraint=eastwest;fontColor=#030303;" parent="200" vertex="1">
                    <mxGeometry y="30" width="122.5" height="34" as="geometry"/>
                </mxCell>
                <mxCell id="202" value="Item 2" style="text;strokeColor=none;fillColor=none;align=left;verticalAlign=top;spacingLeft=4;spacingRight=4;overflow=hidden;rotatable=0;points=[[0,0.5],[1,0.5]];portConstraint=eastwest;fontColor=#000000;" parent="200" vertex="1">
                    <mxGeometry y="64" width="122.5" height="30" as="geometry"/>
                </mxCell>
                <mxCell id="203" value="Item 3&#10;item 4" style="text;strokeColor=none;fillColor=none;align=left;verticalAlign=top;spacingLeft=4;spacingRight=4;overflow=hidden;rotatable=0;points=[[0,0.5],[1,0.5]];portConstraint=eastwest;fontColor=#2A2A2A;" parent="200" vertex="1">
                    <mxGeometry y="94" width="122.5" height="36" as="geometry"/>
                </mxCell>
                <mxCell id="205" value="&lt;font color=&quot;#000000&quot;&gt;Footer - All rights reserved 2021&lt;/font&gt;" style="text;html=1;strokeColor=none;fillColor=none;align=center;verticalAlign=middle;whiteSpace=wrap;rounded=0;" parent="1" vertex="1">
                    <mxGeometry x="530" y="1535" width="220" height="20" as="geometry"/>
                </mxCell>
                <mxCell id="206" value="" style="verticalLabelPosition=bottom;shadow=0;dashed=0;align=center;html=1;verticalAlign=top;strokeWidth=1;shape=mxgraph.mockup.graphics.simpleIcon;strokeColor=#999999;fontSize=13;fontColor=#1F1F1F;fillColor=#F3F3F3;gradientColor=none;" parent="1" vertex="1">
                    <mxGeometry x="730" y="1190" width="30" height="25" as="geometry"/>
                </mxCell>
                <mxCell id="51" value="List" style="swimlane;fontStyle=0;childLayout=stackLayout;horizontal=1;startSize=26;horizontalStack=0;resizeParent=1;resizeParentMax=0;resizeLast=0;collapsible=1;marginBottom=0;gradientColor=none;fillColor=#404040;swimlaneLine=0;strokeColor=none;" parent="1" vertex="1">
                    <mxGeometry x="540" y="440" width="60" height="90" as="geometry"/>
                </mxCell>
                <mxCell id="52" value="Item 1" style="text;strokeColor=none;fillColor=none;align=left;verticalAlign=top;spacingLeft=4;spacingRight=4;overflow=hidden;rotatable=0;points=[[0,0.5],[1,0.5]];portConstraint=eastwest;" parent="51" vertex="1">
                    <mxGeometry y="26" width="60" height="26" as="geometry"/>
                </mxCell>
                <mxCell id="53" value="Item 2" style="text;strokeColor=none;fillColor=none;align=left;verticalAlign=top;spacingLeft=4;spacingRight=4;overflow=hidden;rotatable=0;points=[[0,0.5],[1,0.5]];portConstraint=eastwest;" parent="51" vertex="1">
                    <mxGeometry y="52" width="60" height="38" as="geometry"/>
                </mxCell>
            </root>
        </mxGraphModel>
    </diagram>
</mxfile>